<svg width="1440" height="922" viewBox="0 0 1440 922" fill="none" xmlns="http://www.w3.org/2000/svg">
<g style="mix-blend-mode:color-dodge" opacity="0.88">
<g opacity="0.15">
<path d="M739.811 899.358H717.457V921.716H739.811V899.358Z" fill="#757575"/>
</g>
<g opacity="0.36">
<path d="M709.42 899.358H687.066V921.716H709.42V899.358Z" fill="#757575"/>
</g>
<g opacity="0.59">
<path d="M679.035 899.358H656.681V921.716H679.035V899.358Z" fill="#757575"/>
</g>
<g opacity="0.65">
<path d="M648.65 899.358H626.296V921.716H648.65V899.358Z" fill="#757575"/>
</g>
<g opacity="0.41">
<path d="M618.259 899.358H595.905V921.716H618.259V899.358Z" fill="#757575"/>
</g>
<g opacity="0.94">
<path d="M587.875 899.358H565.521V921.716H587.875V899.358Z" fill="#757575"/>
</g>
<g opacity="0.99">
<path d="M557.49 899.358H535.136V921.716H557.49V899.358Z" fill="#757575"/>
</g>
<g opacity="0.64">
<path d="M739.811 871.065H717.457V893.422H739.811V871.065Z" fill="#757575"/>
</g>
<g opacity="0.19">
<path d="M709.42 871.065H687.066V893.422H709.42V871.065Z" fill="#757575"/>
</g>
<g opacity="0.43">
<path d="M679.035 871.065H656.681V893.422H679.035V871.065Z" fill="#757575"/>
</g>
<g opacity="0.39">
<path d="M648.65 871.065H626.296V893.422H648.65V871.065Z" fill="#757575"/>
</g>
<g opacity="0.65">
<path d="M618.259 871.065H595.905V893.422H618.259V871.065Z" fill="#757575"/>
</g>
<g opacity="0.08">
<path d="M587.875 871.065H565.521V893.422H587.875V871.065Z" fill="#757575"/>
</g>
<path d="M557.49 871.065H535.136V893.422H557.49V871.065Z" fill="#757575"/>
<g opacity="0.09">
<path d="M527.099 871.065H504.745V893.422H527.099V871.065Z" fill="#757575"/>
</g>
<g opacity="0.21">
<path d="M496.714 871.065H474.36V893.422H496.714V871.065Z" fill="#757575"/>
</g>
<g opacity="0.18">
<path d="M739.811 842.765H717.457V865.122H739.811V842.765Z" fill="#757575"/>
</g>
<g opacity="0.32">
<path d="M709.42 842.765H687.066V865.122H709.42V842.765Z" fill="#757575"/>
</g>
<path d="M679.035 842.765H656.681V865.122H679.035V842.765Z" fill="#757575"/>
<g opacity="0.51">
<path d="M648.65 842.765H626.296V865.122H648.65V842.765Z" fill="#757575"/>
</g>
<g opacity="0.74">
<path d="M587.875 842.765H565.521V865.122H587.875V842.765Z" fill="#757575"/>
</g>
<g opacity="0.85">
<path d="M557.49 842.765H535.136V865.122H557.49V842.765Z" fill="#757575"/>
</g>
<g opacity="0.53">
<path d="M527.099 842.765H504.745V865.122H527.099V842.765Z" fill="#757575"/>
</g>
<g opacity="0.13">
<path d="M496.714 842.765H474.36V865.122H496.714V842.765Z" fill="#757575"/>
</g>
<g opacity="0.32">
<path d="M466.33 842.765H443.976V865.122H466.33V842.765Z" fill="#757575"/>
</g>
<g opacity="0.52">
<path d="M435.939 842.765H413.584V865.122H435.939V842.765Z" fill="#757575"/>
</g>
<g opacity="0.81">
<path d="M405.554 842.765H383.2V865.122H405.554V842.765Z" fill="#757575"/>
</g>
<g opacity="0.84">
<path d="M375.169 842.765H352.815V865.122H375.169V842.765Z" fill="#757575"/>
</g>
<g opacity="0.95">
<path d="M344.778 842.765H322.424V865.122H344.778V842.765Z" fill="#757575"/>
</g>
<g opacity="0.13">
<path d="M314.394 842.765H292.04V865.122H314.394V842.765Z" fill="#757575"/>
</g>
<g opacity="0.44">
<path d="M284.009 842.765H261.655V865.122H284.009V842.765Z" fill="#757575"/>
</g>
<g opacity="0.08">
<path d="M253.618 842.765H231.264V865.122H253.618V842.765Z" fill="#757575"/>
</g>
<g opacity="0.69">
<path d="M223.233 842.765H200.879V865.122H223.233V842.765Z" fill="#757575"/>
</g>
<g opacity="0.81">
<path d="M192.146 842.765H169.792V865.122H192.146V842.765Z" fill="#757575"/>
</g>
<g opacity="0.52">
<path d="M161.761 842.765H139.407V865.122H161.761V842.765Z" fill="#757575"/>
</g>
<g opacity="0.09">
<path d="M131.377 842.765H109.023V865.122H131.377V842.765Z" fill="#757575"/>
</g>
<g opacity="0.43">
<path d="M739.811 814.471H717.457V836.828H739.811V814.471Z" fill="#757575"/>
</g>
<g opacity="0.31">
<path d="M587.875 814.471H565.521V836.828H587.875V814.471Z" fill="#757575"/>
</g>
<g opacity="0.88">
<path d="M557.49 814.471H535.136V836.828H557.49V814.471Z" fill="#757575"/>
</g>
<g opacity="0.63">
<path d="M527.099 814.471H504.745V836.828H527.099V814.471Z" fill="#757575"/>
</g>
<g opacity="0.04">
<path d="M496.714 814.471H474.36V836.828H496.714V814.471Z" fill="#757575"/>
</g>
<g opacity="0.11">
<path d="M466.33 814.471H443.976V836.828H466.33V814.471Z" fill="#757575"/>
</g>
<g opacity="0.86">
<path d="M435.939 814.471H413.584V836.828H435.939V814.471Z" fill="#757575"/>
</g>
<g opacity="0.58">
<path d="M405.554 814.471H383.2V836.828H405.554V814.471Z" fill="#757575"/>
</g>
<g opacity="0.52">
<path d="M375.169 814.471H352.815V836.828H375.169V814.471Z" fill="#757575"/>
</g>
<g opacity="0.03">
<path d="M344.778 814.471H322.424V836.828H344.778V814.471Z" fill="#757575"/>
</g>
<g opacity="0.86">
<path d="M314.394 814.471H292.04V836.828H314.394V814.471Z" fill="#757575"/>
</g>
<g opacity="0.88">
<path d="M284.009 814.471H261.655V836.828H284.009V814.471Z" fill="#757575"/>
</g>
<g opacity="0.36">
<path d="M253.618 814.471H231.264V836.828H253.618V814.471Z" fill="#757575"/>
</g>
<g opacity="0.12">
<path d="M223.233 814.471H200.879V836.828H223.233V814.471Z" fill="#757575"/>
</g>
<g opacity="0.07">
<path d="M192.146 814.471H169.792V836.828H192.146V814.471Z" fill="#757575"/>
</g>
<g opacity="0.46">
<path d="M161.761 814.471H139.407V836.828H161.761V814.471Z" fill="#757575"/>
</g>
<g opacity="0.22">
<path d="M131.377 814.471H109.023V836.828H131.377V814.471Z" fill="#757575"/>
</g>
<g opacity="0.49">
<path d="M70.6009 814.471H48.2468V836.828H70.6009V814.471Z" fill="#757575"/>
</g>
<g opacity="0.86">
<path d="M40.2162 814.471H17.8622V836.828H40.2162V814.471Z" fill="#757575"/>
</g>
<g opacity="0.36">
<path d="M9.82512 814.471H-12.5289V836.828H9.82512V814.471Z" fill="#757575"/>
</g>
<path d="M739.811 786.177H717.457V808.535H739.811V786.177Z" fill="#757575"/>
<g opacity="0.76">
<path d="M496.714 786.177H474.36V808.535H496.714V786.177Z" fill="#757575"/>
</g>
<g opacity="0.16">
<path d="M466.33 786.177H443.976V808.535H466.33V786.177Z" fill="#757575"/>
</g>
<g opacity="0.53">
<path d="M435.939 786.177H413.584V808.535H435.939V786.177Z" fill="#757575"/>
</g>
<g opacity="0.53">
<path d="M405.554 786.177H383.2V808.535H405.554V786.177Z" fill="#757575"/>
</g>
<g opacity="0.82">
<path d="M375.169 786.177H352.815V808.535H375.169V786.177Z" fill="#757575"/>
</g>
<g opacity="0.42">
<path d="M344.778 786.177H322.424V808.535H344.778V786.177Z" fill="#757575"/>
</g>
<g opacity="0.41">
<path d="M314.394 786.177H292.04V808.535H314.394V786.177Z" fill="#757575"/>
</g>
<g opacity="0.56">
<path d="M284.009 786.177H261.655V808.535H284.009V786.177Z" fill="#757575"/>
</g>
<g opacity="0.64">
<path d="M223.233 786.177H200.879V808.535H223.233V786.177Z" fill="#757575"/>
</g>
<g opacity="0.95">
<path d="M192.146 786.177H169.792V808.535H192.146V786.177Z" fill="#757575"/>
</g>
<g opacity="0.2">
<path d="M161.761 786.177H139.407V808.535H161.761V786.177Z" fill="#757575"/>
</g>
<g opacity="0.99">
<path d="M131.377 786.177H109.023V808.535H131.377V786.177Z" fill="#757575"/>
</g>
<g opacity="0.5">
<path d="M100.985 786.177H78.6314V808.535H100.985V786.177Z" fill="#757575"/>
</g>
<g opacity="0.77">
<path d="M70.6009 786.177H48.2468V808.535H70.6009V786.177Z" fill="#757575"/>
</g>
<g opacity="0.58">
<path d="M40.2162 786.177H17.8622V808.535H40.2162V786.177Z" fill="#757575"/>
</g>
<g opacity="0.46">
<path d="M9.82512 786.177H-12.5289V808.535H9.82512V786.177Z" fill="#757575"/>
</g>
<g opacity="0.02">
<path d="M739.811 757.877H717.457V780.235H739.811V757.877Z" fill="#757575"/>
</g>
<g opacity="0.97">
<path d="M375.169 757.877H352.815V780.235H375.169V757.877Z" fill="#757575"/>
</g>
<g opacity="0.53">
<path d="M70.6009 757.877H48.2468V780.235H70.6009V757.877Z" fill="#757575"/>
</g>
<g opacity="0.27">
<path d="M40.2162 757.877H17.8622V780.235H40.2162V757.877Z" fill="#757575"/>
</g>
</g>
<g style="mix-blend-mode:color-dodge" opacity="0.88">
<g opacity="0.15">
<path d="M784.929 0H763.694V21.2382H784.929V0Z" fill="#757575"/>
</g>
<g opacity="0.36">
<path d="M813.797 0H792.562V21.2382H813.797V0Z" fill="#757575"/>
</g>
<g opacity="0.59">
<path d="M842.665 0H821.431V21.2382H842.665V0Z" fill="#757575"/>
</g>
<g opacity="0.65">
<path d="M871.534 0H850.299V21.2382H871.534V0Z" fill="#757575"/>
</g>
<g opacity="0.41">
<path d="M900.396 0H879.161V21.2382H900.396V0Z" fill="#757575"/>
</g>
<g opacity="0.94">
<path d="M929.264 0H908.029V21.2382H929.264V0Z" fill="#757575"/>
</g>
<g opacity="0.99">
<path d="M958.132 0H936.897V21.2382H958.132V0Z" fill="#757575"/>
</g>
<g opacity="0.64">
<path d="M784.929 26.8813H763.694V48.1195H784.929V26.8813Z" fill="#757575"/>
</g>
<g opacity="0.19">
<path d="M813.797 26.8813H792.562V48.1195H813.797V26.8813Z" fill="#757575"/>
</g>
<g opacity="0.43">
<path d="M842.665 26.8813H821.431V48.1195H842.665V26.8813Z" fill="#757575"/>
</g>
<g opacity="0.39">
<path d="M871.534 26.8813H850.299V48.1195H871.534V26.8813Z" fill="#757575"/>
</g>
<g opacity="0.65">
<path d="M900.396 26.8813H879.161V48.1195H900.396V26.8813Z" fill="#757575"/>
</g>
<g opacity="0.08">
<path d="M929.264 26.8813H908.029V48.1195H929.264V26.8813Z" fill="#757575"/>
</g>
<path d="M958.132 26.8813H936.897V48.1195H958.132V26.8813Z" fill="#757575"/>
<g opacity="0.09">
<path d="M986.994 26.8813H965.759V48.1195H986.994V26.8813Z" fill="#757575"/>
</g>
<g opacity="0.21">
<path d="M1015.86 26.8813H994.628V48.1195H1015.86V26.8813Z" fill="#757575"/>
</g>
<g opacity="0.18">
<path d="M784.929 53.7626H763.694V75.0008H784.929V53.7626Z" fill="#757575"/>
</g>
<g opacity="0.32">
<path d="M813.797 53.7626H792.562V75.0008H813.797V53.7626Z" fill="#757575"/>
</g>
<path d="M842.665 53.7626H821.431V75.0008H842.665V53.7626Z" fill="#757575"/>
<g opacity="0.51">
<path d="M871.534 53.7626H850.299V75.0008H871.534V53.7626Z" fill="#757575"/>
</g>
<g opacity="0.74">
<path d="M929.264 53.7626H908.029V75.0008H929.264V53.7626Z" fill="#757575"/>
</g>
<g opacity="0.85">
<path d="M958.132 53.7626H936.897V75.0008H958.132V53.7626Z" fill="#757575"/>
</g>
<g opacity="0.53">
<path d="M986.994 53.7626H965.759V75.0008H986.994V53.7626Z" fill="#757575"/>
</g>
<g opacity="0.13">
<path d="M1015.86 53.7626H994.628V75.0008H1015.86V53.7626Z" fill="#757575"/>
</g>
<g opacity="0.32">
<path d="M1044.73 53.7626H1023.5V75.0008H1044.73V53.7626Z" fill="#757575"/>
</g>
<g opacity="0.52">
<path d="M1073.59 53.7626H1052.36V75.0008H1073.59V53.7626Z" fill="#757575"/>
</g>
<g opacity="0.81">
<path d="M1102.46 53.7626H1081.23V75.0008H1102.46V53.7626Z" fill="#757575"/>
</g>
<g opacity="0.84">
<path d="M1131.33 53.7626H1110.09V75.0008H1131.33V53.7626Z" fill="#757575"/>
</g>
<g opacity="0.95">
<path d="M1160.2 53.7626H1138.96V75.0008H1160.2V53.7626Z" fill="#757575"/>
</g>
<g opacity="0.13">
<path d="M1189.06 53.7626H1167.82V75.0008H1189.06V53.7626Z" fill="#757575"/>
</g>
<g opacity="0.44">
<path d="M1217.93 53.7626H1196.69V75.0008H1217.93V53.7626Z" fill="#757575"/>
</g>
<g opacity="0.08">
<path d="M1246.8 53.7626H1225.56V75.0008H1246.8V53.7626Z" fill="#757575"/>
</g>
<g opacity="0.69">
<path d="M1275.66 53.7626H1254.42V75.0008H1275.66V53.7626Z" fill="#757575"/>
</g>
<g opacity="0.81">
<path d="M1305.19 53.7626H1283.95V75.0008H1305.19V53.7626Z" fill="#757575"/>
</g>
<g opacity="0.52">
<path d="M1334.06 53.7626H1312.82V75.0008H1334.06V53.7626Z" fill="#757575"/>
</g>
<g opacity="0.09">
<path d="M1362.93 53.7626H1341.69V75.0008H1362.93V53.7626Z" fill="#757575"/>
</g>
<g opacity="0.43">
<path d="M784.929 80.6373H763.694V101.876H784.929V80.6373Z" fill="#757575"/>
</g>
<g opacity="0.31">
<path d="M929.264 80.6373H908.029V101.876H929.264V80.6373Z" fill="#757575"/>
</g>
<g opacity="0.88">
<path d="M958.132 80.6373H936.897V101.876H958.132V80.6373Z" fill="#757575"/>
</g>
<g opacity="0.63">
<path d="M986.994 80.6373H965.759V101.876H986.994V80.6373Z" fill="#757575"/>
</g>
<g opacity="0.04">
<path d="M1015.86 80.6373H994.628V101.876H1015.86V80.6373Z" fill="#757575"/>
</g>
<g opacity="0.11">
<path d="M1044.73 80.6373H1023.5V101.876H1044.73V80.6373Z" fill="#757575"/>
</g>
<g opacity="0.86">
<path d="M1073.59 80.6373H1052.36V101.876H1073.59V80.6373Z" fill="#757575"/>
</g>
<g opacity="0.58">
<path d="M1102.46 80.6373H1081.23V101.876H1102.46V80.6373Z" fill="#757575"/>
</g>
<g opacity="0.52">
<path d="M1131.33 80.6373H1110.09V101.876H1131.33V80.6373Z" fill="#757575"/>
</g>
<g opacity="0.03">
<path d="M1160.2 80.6373H1138.96V101.876H1160.2V80.6373Z" fill="#757575"/>
</g>
<g opacity="0.86">
<path d="M1189.06 80.6373H1167.82V101.876H1189.06V80.6373Z" fill="#757575"/>
</g>
<g opacity="0.88">
<path d="M1217.93 80.6373H1196.69V101.876H1217.93V80.6373Z" fill="#757575"/>
</g>
<g opacity="0.36">
<path d="M1246.8 80.6373H1225.56V101.876H1246.8V80.6373Z" fill="#757575"/>
</g>
<g opacity="0.12">
<path d="M1275.66 80.6373H1254.42V101.876H1275.66V80.6373Z" fill="#757575"/>
</g>
<g opacity="0.07">
<path d="M1305.19 80.6373H1283.95V101.876H1305.19V80.6373Z" fill="#757575"/>
</g>
<g opacity="0.46">
<path d="M1334.06 80.6373H1312.82V101.876H1334.06V80.6373Z" fill="#757575"/>
</g>
<g opacity="0.22">
<path d="M1362.93 80.6373H1341.69V101.876H1362.93V80.6373Z" fill="#757575"/>
</g>
<g opacity="0.49">
<path d="M1420.66 80.6373H1399.42V101.876H1420.66V80.6373Z" fill="#757575"/>
</g>
<g opacity="0.86">
<path d="M1449.52 80.6373H1428.29V101.876H1449.52V80.6373Z" fill="#757575"/>
</g>
<path d="M784.929 107.519H763.694V128.757H784.929V107.519Z" fill="#757575"/>
<g opacity="0.76">
<path d="M1015.86 107.519H994.628V128.757H1015.86V107.519Z" fill="#757575"/>
</g>
<g opacity="0.16">
<path d="M1044.73 107.519H1023.5V128.757H1044.73V107.519Z" fill="#757575"/>
</g>
<g opacity="0.53">
<path d="M1073.59 107.519H1052.36V128.757H1073.59V107.519Z" fill="#757575"/>
</g>
<g opacity="0.53">
<path d="M1102.46 107.519H1081.23V128.757H1102.46V107.519Z" fill="#757575"/>
</g>
<g opacity="0.82">
<path d="M1131.33 107.519H1110.09V128.757H1131.33V107.519Z" fill="#757575"/>
</g>
<g opacity="0.42">
<path d="M1160.2 107.519H1138.96V128.757H1160.2V107.519Z" fill="#757575"/>
</g>
<g opacity="0.41">
<path d="M1189.06 107.519H1167.82V128.757H1189.06V107.519Z" fill="#757575"/>
</g>
<g opacity="0.56">
<path d="M1217.93 107.519H1196.69V128.757H1217.93V107.519Z" fill="#757575"/>
</g>
<g opacity="0.64">
<path d="M1275.66 107.519H1254.42V128.757H1275.66V107.519Z" fill="#757575"/>
</g>
<g opacity="0.95">
<path d="M1305.19 107.519H1283.95V128.757H1305.19V107.519Z" fill="#757575"/>
</g>
<g opacity="0.2">
<path d="M1334.06 107.519H1312.82V128.757H1334.06V107.519Z" fill="#757575"/>
</g>
<g opacity="0.99">
<path d="M1362.93 107.519H1341.69V128.757H1362.93V107.519Z" fill="#757575"/>
</g>
<g opacity="0.5">
<path d="M1391.79 107.519H1370.55V128.757H1391.79V107.519Z" fill="#757575"/>
</g>
<g opacity="0.77">
<path d="M1420.66 107.519H1399.42V128.757H1420.66V107.519Z" fill="#757575"/>
</g>
<g opacity="0.58">
<path d="M1449.52 107.519H1428.29V128.757H1449.52V107.519Z" fill="#757575"/>
</g>
<g opacity="0.02">
<path d="M784.929 134.4H763.694V155.638H784.929V134.4Z" fill="#757575"/>
</g>
<g opacity="0.97">
<path d="M1131.33 134.4H1110.09V155.638H1131.33V134.4Z" fill="#757575"/>
</g>
<g opacity="0.53">
<path d="M1420.66 134.4H1399.42V155.638H1420.66V134.4Z" fill="#757575"/>
</g>
<g opacity="0.27">
<path d="M1449.52 134.4H1428.29V155.638H1449.52V134.4Z" fill="#757575"/>
</g>
</g>
</svg>
