<svg width="18" height="461" viewBox="0 0 18 461" fill="none" xmlns="http://www.w3.org/2000/svg">
<path d="M9 461C13.4183 461 17 457.418 17 453C17 448.582 13.4183 445 9 445C4.58172 445 1 448.582 1 453C1 457.418 4.58172 461 9 461ZM8.99998 0.339752L0.339726 9L8.99998 17.6602L17.6602 9L8.99998 0.339752ZM10.5 453L10.5 9L7.49998 9L7.5 453L10.5 453Z" fill="#5799E5"/>
</svg>
